<?xml version="1.0" encoding="UTF-8"?>
<svg width="21px" height="21px" viewBox="0 0 21 21" version="1.1" xmlns="http://www.w3.org/2000/svg" xmlns:xlink="http://www.w3.org/1999/xlink">
    <!-- Generator: Sketch 56.3 (81716) - https://sketch.com -->
    <title>iconspace_Add Item_25px</title>
    <desc>Created with Sketch.</desc>
    <g id="Mobile-App" stroke="none" stroke-width="1" fill="none" fill-rule="evenodd">
        <g id="tab-bar-copy" transform="translate(-177.000000, -13.000000)">
            <g id="Group-22-Copy-2" transform="translate(161.000000, 11.000000)">
                <g id="iconspace_Add-Item_25px" transform="translate(14.000000, 0.000000)">
                    <polygon id="Path" points="0 0 25 0 25 25 0 25"></polygon>
                    <polygon id="Path" points="0 0 25 0 25 25 0 25"></polygon>
                    <path d="M5.5,2 L19.5,2 C21.4329966,2 23,3.56700338 23,5.5 L23,19.5 C23,21.4329966 21.4329966,23 19.5,23 L5.5,23 C3.56700338,23 2,21.4329966 2,19.5 L2,5.5 C2,3.56700338 3.56700338,2 5.5,2 Z M5.5,3 C4.11928813,3 3,4.11928813 3,5.5 L3,19.5 C3,20.8807119 4.11928813,22 5.5,22 L19.5,22 C20.8807119,22 22,20.8807119 22,19.5 L22,5.5 C22,4.11928813 20.8807119,3 19.5,3 L5.5,3 Z" id="Path" fill="#3B7CEC" fill-rule="nonzero"></path>
                    <path d="M12,12 L12,9.5 C12,9.22385763 12.2238576,9 12.5,9 C12.7761424,9 13,9.22385763 13,9.5 L13,12 L15.5,12 C15.7761424,12 16,12.2238576 16,12.5 C16,12.7761424 15.7761424,13 15.5,13 L13,13 L13,15.5 C13,15.7761424 12.7761424,16 12.5,16 C12.2238576,16 12,15.7761424 12,15.5 L12,13 L9.5,13 C9.22385763,13 9,12.7761424 9,12.5 C9,12.2238576 9.22385763,12 9.5,12 L12,12 Z" id="Path" fill="#3B7CEC"></path>
                </g>
            </g>
        </g>
    </g>
</svg>